[
    {
        "text": "रास्ते के मुख पर एक जंगल था",
        "duration": [
            0.0,
            2.6
        ]
    },
    {
        "text": "उसमें अनेक जंगली जानवर रहते थे",
        "duration": [
            2.6,
            5.5
        ]
    },
    {
        "text": "एक शिकारी कुत्ता उस जंगल में 21",
        "duration": [
            5.5,
            8.777
        ]
    }
]